[gd_scene load_steps=2 format=2]

[ext_resource path="res://scenes/kitchenAutotile.tscn" type="PackedScene" id=1]

[node name="Node2D" type="Node2D"]

[node name="TileMap" parent="." instance=ExtResource( 1 )]
