[gd_scene load_steps=9 format=2]

[ext_resource path="res://assets/textures/Background repeat.png" type="Texture" id=1]
[ext_resource path="res://scenes/kitchenAutotile.tscn" type="PackedScene" id=2]
[ext_resource path="res://scenes/player.tscn" type="PackedScene" id=3]
[ext_resource path="res://scenes/GUI.tscn" type="PackedScene" id=4]
[ext_resource path="res://scenes/truffle.tscn" type="PackedScene" id=5]
[ext_resource path="res://scenes/SpawnArea.tscn" type="PackedScene" id=6]
[ext_resource path="res://scenes/Warp.tscn" type="PackedScene" id=7]
[ext_resource path="res://scenes/level5.tscn" type="PackedScene" id=8]

[node name="world" type="Node2D"]

[node name="ParallaxBackground" type="ParallaxBackground" parent="."]
scale = Vector2( 8, 8 )
transform = Transform2D( 8, 0, 0, 8, 0, 0 )

[node name="ParallaxLayer" type="ParallaxLayer" parent="ParallaxBackground"]
motion_scale = Vector2( 0.1, 0.1 )
motion_mirroring = Vector2( 256, 144 )

[node name="Sprite" type="Sprite" parent="ParallaxBackground/ParallaxLayer"]
texture = ExtResource( 1 )
centered = false

[node name="TileMap" parent="." instance=ExtResource( 2 )]
tile_data = PoolIntArray( 393219, 0, 1, 393220, 0, 65536, 393221, 0, 65536, 393222, 0, 65536, 393223, 0, 65536, 393224, 0, 65536, 393225, 0, 65536, 393226, 0, 65536, 393227, 0, 65536, 393228, 0, 65536, 393229, 0, 65536, 393230, 0, 65536, 393231, 0, 65536, 393232, 0, 65536, 393233, 0, 65536, 393234, 0, 65536, 393235, 0, 65536, 393236, 0, 2, 393246, 0, 1, 393247, 0, 65536, 393248, 0, 65536, 393249, 0, 65536, 393250, 0, 2, 458755, 0, 131073, 458756, 0, 196619, 458757, 0, 196619, 458758, 0, 196619, 458759, 0, 196619, 458760, 0, 196619, 458761, 0, 196619, 458762, 0, 196619, 458763, 0, 196619, 458764, 0, 196619, 458765, 0, 196619, 458766, 0, 196619, 458767, 0, 196619, 458768, 0, 196619, 458769, 0, 196619, 458770, 0, 196619, 458771, 0, 196619, 458772, 0, 131074, 458782, 0, 131073, 458783, 0, 196619, 458784, 0, 196619, 458785, 0, 196619, 458786, 0, 131074, 524291, 0, 131073, 524292, 0, 196619, 524293, 0, 196619, 524294, 0, 196619, 524295, 0, 196619, 524296, 0, 196619, 524297, 0, 196619, 524298, 0, 196619, 524299, 0, 196619, 524300, 0, 196619, 524301, 0, 196619, 524302, 0, 196619, 524303, 0, 196619, 524304, 0, 196619, 524305, 0, 196619, 524306, 0, 196619, 524307, 0, 196619, 524308, 0, 65539, 524309, 0, 65536, 524310, 0, 65536, 524311, 0, 65536, 524312, 0, 65536, 524313, 0, 65536, 524314, 0, 65536, 524315, 0, 65536, 524316, 0, 65536, 524317, 0, 65536, 524318, 0, 65540, 524319, 0, 196619, 524320, 0, 196619, 524321, 0, 196619, 524322, 0, 131074, 589827, 0, 131073, 589828, 0, 196619, 589829, 0, 196619, 589830, 0, 196619, 589831, 0, 196619, 589832, 0, 196619, 589833, 0, 196619, 589834, 0, 196619, 589835, 0, 196619, 589836, 0, 196619, 589837, 0, 196619, 589838, 0, 196619, 589839, 0, 196619, 589840, 0, 196619, 589841, 0, 196619, 589842, 0, 196619, 589843, 0, 196619, 589844, 0, 196619, 589845, 0, 196619, 589846, 0, 196619, 589847, 0, 196619, 589848, 0, 196619, 589849, 0, 196619, 589850, 0, 196619, 589851, 0, 196619, 589852, 0, 196619, 589853, 0, 196619, 589854, 0, 196619, 589855, 0, 196619, 589856, 0, 196619, 589857, 0, 196619, 589858, 0, 131074, 655363, 0, 131073, 655364, 0, 196619, 655365, 0, 196619, 655366, 0, 196619, 655367, 0, 196619, 655368, 0, 196619, 655369, 0, 196619, 655370, 0, 196619, 655371, 0, 196619, 655372, 0, 196619, 655373, 0, 196619, 655374, 0, 196619, 655375, 0, 196619, 655376, 0, 196619, 655377, 0, 196619, 655378, 0, 196619, 655379, 0, 196619, 655380, 0, 196619, 655381, 0, 196619, 655382, 0, 196619, 655383, 0, 196619, 655384, 0, 196619, 655385, 0, 196619, 655386, 0, 196619, 655387, 0, 196619, 655388, 0, 196619, 655389, 0, 196619, 655390, 0, 196619, 655391, 0, 196619, 655392, 0, 196619, 655393, 0, 196619, 655394, 0, 131074, 720899, 0, 131073, 720900, 0, 196619, 720901, 0, 196619, 720902, 0, 196619, 720903, 0, 196619, 720904, 0, 196619, 720905, 0, 196619, 720906, 0, 196619, 720907, 0, 196619, 720908, 0, 196619, 720909, 0, 196619, 720910, 0, 196619, 720911, 0, 196619, 720912, 0, 196619, 720913, 0, 196619, 720914, 0, 196619, 720915, 0, 196619, 720916, 0, 196619, 720917, 0, 196619, 720918, 0, 196619, 720919, 0, 196619, 720920, 0, 196619, 720921, 0, 196619, 720922, 0, 196619, 720923, 0, 196619, 720924, 0, 196619, 720925, 0, 196619, 720926, 0, 196619, 720927, 0, 196619, 720928, 0, 196619, 720929, 0, 196619, 720930, 0, 131074, 720943, 0, 1, 720944, 0, 65536, 720945, 0, 65536, 720946, 0, 65536, 720947, 0, 65536, 720948, 0, 2, 720955, 0, 1, 720956, 0, 65536, 720957, 0, 65536, 720958, 0, 65536, 720959, 0, 65536, 720960, 0, 65536, 720961, 0, 2, 786435, 0, 131073, 786436, 0, 196619, 786437, 0, 196619, 786438, 0, 196619, 786439, 0, 196619, 786440, 0, 196619, 786441, 0, 196619, 786442, 0, 196619, 786443, 0, 196619, 786444, 0, 196619, 786445, 0, 196619, 786446, 0, 196619, 786447, 0, 196619, 786448, 0, 196619, 786449, 0, 196619, 786450, 0, 196619, 786451, 0, 196619, 786452, 0, 196619, 786453, 0, 196619, 786454, 0, 196619, 786455, 0, 196619, 786456, 0, 196619, 786457, 0, 196619, 786458, 0, 196619, 786459, 0, 196619, 786460, 0, 196619, 786461, 0, 196619, 786462, 0, 196619, 786463, 0, 196619, 786464, 0, 196619, 786465, 0, 196619, 786466, 0, 131074, 786479, 0, 131073, 786480, 0, 196619, 786481, 0, 196619, 786482, 0, 196619, 786483, 0, 196619, 786484, 0, 131074, 786491, 0, 131073, 786492, 0, 196619, 786493, 0, 196619, 786494, 0, 196619, 786495, 0, 196619, 786496, 0, 196619, 786497, 0, 131074, 851971, 0, 131073, 851972, 0, 196619, 851973, 0, 196619, 851974, 0, 196619, 851975, 0, 196619, 851976, 0, 196619, 851977, 0, 196619, 851978, 0, 196619, 851979, 0, 196619, 851980, 0, 196619, 851981, 0, 196619, 851982, 0, 196619, 851983, 0, 196619, 851984, 0, 196619, 851985, 0, 196619, 851986, 0, 196619, 851987, 0, 196619, 851988, 0, 196619, 851989, 0, 196619, 851990, 0, 196619, 851991, 0, 196619, 851992, 0, 196619, 851993, 0, 196619, 851994, 0, 196619, 851995, 0, 196619, 851996, 0, 196619, 851997, 0, 196619, 851998, 0, 196619, 851999, 0, 196619, 852000, 0, 196619, 852001, 0, 196619, 852002, 0, 131074, 852015, 0, 131073, 852016, 0, 196619, 852017, 0, 196619, 852018, 0, 196619, 852019, 0, 196619, 852020, 0, 131074, 852027, 0, 131073, 852028, 0, 196619, 852029, 0, 196619, 852030, 0, 196619, 852031, 0, 196619, 852032, 0, 196619, 852033, 0, 131074, 917507, 0, 131073, 917508, 0, 196619, 917509, 0, 196619, 917510, 0, 196619, 917511, 0, 196619, 917512, 0, 196619, 917513, 0, 196619, 917514, 0, 196619, 917515, 0, 196619, 917516, 0, 196619, 917517, 0, 196619, 917518, 0, 196619, 917519, 0, 196619, 917520, 0, 196619, 917521, 0, 196619, 917522, 0, 196619, 917523, 0, 196619, 917524, 0, 196619, 917525, 0, 196619, 917526, 0, 196619, 917527, 0, 196619, 917528, 0, 196619, 917529, 0, 196619, 917530, 0, 196619, 917531, 0, 196619, 917532, 0, 196619, 917533, 0, 196619, 917534, 0, 196619, 917535, 0, 196619, 917536, 0, 196619, 917537, 0, 196619, 917538, 0, 65539, 917539, 0, 65536, 917540, 0, 65536, 917541, 0, 65536, 917542, 0, 65536, 917543, 0, 65536, 917544, 0, 65536, 917545, 0, 65536, 917546, 0, 65536, 917547, 0, 65536, 917548, 0, 65536, 917549, 0, 65536, 917550, 0, 65536, 917551, 0, 65540, 917552, 0, 196619, 917553, 0, 196619, 917554, 0, 196619, 917555, 0, 196619, 917556, 0, 131074, 917563, 0, 131073, 917564, 0, 196619, 917565, 0, 196619, 917566, 0, 196619, 917567, 0, 196619, 917568, 0, 196619, 917569, 0, 131074, 983043, 0, 131073, 983044, 0, 196619, 983045, 0, 196619, 983046, 0, 196619, 983047, 0, 196619, 983048, 0, 196619, 983049, 0, 196619, 983050, 0, 196619, 983051, 0, 196619, 983052, 0, 196619, 983053, 0, 196619, 983054, 0, 196619, 983055, 0, 196619, 983056, 0, 196619, 983057, 0, 196619, 983058, 0, 196619, 983059, 0, 196619, 983060, 0, 196619, 983061, 0, 196619, 983062, 0, 196619, 983063, 0, 196619, 983064, 0, 196619, 983065, 0, 196619, 983066, 0, 196619, 983067, 0, 196619, 983068, 0, 196619, 983069, 0, 196619, 983070, 0, 196619, 983071, 0, 196619, 983072, 0, 196619, 983073, 0, 196619, 983074, 0, 196619, 983075, 0, 196619, 983076, 0, 196619, 983077, 0, 196619, 983078, 0, 196619, 983079, 0, 196619, 983080, 0, 196619, 983081, 0, 196619, 983082, 0, 196619, 983083, 0, 196619, 983084, 0, 196619, 983085, 0, 196619, 983086, 0, 196619, 983087, 0, 196619, 983088, 0, 196619, 983089, 0, 196619, 983090, 0, 196619, 983091, 0, 196619, 983092, 0, 131074, 983099, 0, 65537, 983100, 0, 131072, 983101, 0, 131072, 983102, 0, 131072, 983103, 0, 4, 983104, 0, 196619, 983105, 0, 131074, 1048579, 0, 65537, 1048580, 0, 131072, 1048581, 0, 131072, 1048582, 0, 131072, 1048583, 0, 131072, 1048584, 0, 131072, 1048585, 0, 131072, 1048586, 0, 131072, 1048587, 0, 131072, 1048588, 0, 131072, 1048589, 0, 131072, 1048590, 0, 131072, 1048591, 0, 131072, 1048592, 0, 131072, 1048593, 0, 131072, 1048594, 0, 131072, 1048595, 0, 131072, 1048596, 0, 131072, 1048597, 0, 131072, 1048598, 0, 131072, 1048599, 0, 131072, 1048600, 0, 131072, 1048601, 0, 131072, 1048602, 0, 131072, 1048603, 0, 131072, 1048604, 0, 131072, 1048605, 0, 131072, 1048606, 0, 131072, 1048607, 0, 131072, 1048608, 0, 131072, 1048609, 0, 131072, 1048610, 0, 131072, 1048611, 0, 131072, 1048612, 0, 131072, 1048613, 0, 131072, 1048614, 0, 131072, 1048615, 0, 131072, 1048616, 0, 131072, 1048617, 0, 131072, 1048618, 0, 131072, 1048619, 0, 131072, 1048620, 0, 131072, 1048621, 0, 131072, 1048622, 0, 131072, 1048623, 0, 131072, 1048624, 0, 131072, 1048625, 0, 131072, 1048626, 0, 131072, 1048627, 0, 131072, 1048628, 0, 65538, 1048639, 0, 131073, 1048640, 0, 196619, 1048641, 0, 131074, 1114175, 0, 131073, 1114176, 0, 196619, 1114177, 0, 131074, 1179703, 0, 1, 1179704, 0, 65536, 1179705, 0, 2, 1179711, 0, 131073, 1179712, 0, 196619, 1179713, 0, 131074, 1245239, 0, 131073, 1245240, 0, 196619, 1245241, 0, 131074, 1245247, 0, 131073, 1245248, 0, 196619, 1245249, 0, 131074, 1310767, 0, 1, 1310768, 0, 65536, 1310769, 0, 65536, 1310770, 0, 65536, 1310771, 0, 65536, 1310772, 0, 65536, 1310773, 0, 65536, 1310774, 0, 65536, 1310775, 0, 65540, 1310776, 0, 196619, 1310777, 0, 131074, 1310783, 0, 131073, 1310784, 0, 196619, 1310785, 0, 131074, 1376303, 0, 131073, 1376304, 0, 196619, 1376305, 0, 196619, 1376306, 0, 196619, 1376307, 0, 196619, 1376308, 0, 196619, 1376309, 0, 196619, 1376310, 0, 196619, 1376311, 0, 196619, 1376312, 0, 196619, 1376313, 0, 131074, 1376319, 0, 131073, 1376320, 0, 196619, 1376321, 0, 131074, 1441839, 0, 131073, 1441840, 0, 196619, 1441841, 0, 3, 1441842, 0, 131072, 1441843, 0, 131072, 1441844, 0, 131072, 1441845, 0, 131072, 1441846, 0, 131072, 1441847, 0, 131072, 1441848, 0, 131072, 1441849, 0, 65538, 1441855, 0, 131073, 1441856, 0, 196619, 1441857, 0, 131074, 1507375, 0, 131073, 1507376, 0, 196619, 1507377, 0, 131074, 1507391, 0, 131073, 1507392, 0, 196619, 1507393, 0, 131074, 1572908, 0, 1, 1572909, 0, 65536, 1572910, 0, 65536, 1572911, 0, 65540, 1572912, 0, 196619, 1572913, 0, 131074, 1572927, 0, 131073, 1572928, 0, 196619, 1572929, 0, 131074, 1638444, 0, 131073, 1638445, 0, 196619, 1638446, 0, 196619, 1638447, 0, 196619, 1638448, 0, 196619, 1638449, 0, 131074, 1638463, 0, 131073, 1638464, 0, 196619, 1638465, 0, 131074, 1703944, 0, 1, 1703945, 0, 65536, 1703946, 0, 65536, 1703947, 0, 65536, 1703948, 0, 2, 1703980, 0, 131073, 1703981, 0, 196619, 1703982, 0, 196619, 1703983, 0, 196619, 1703984, 0, 196619, 1703985, 0, 131074, 1703999, 0, 131073, 1704000, 0, 196619, 1704001, 0, 131074, 1769480, 0, 131073, 1769481, 0, 196619, 1769482, 0, 196619, 1769483, 0, 196619, 1769484, 0, 131074, 1769516, 0, 65537, 1769517, 0, 131072, 1769518, 0, 131072, 1769519, 0, 131072, 1769520, 0, 131072, 1769521, 0, 65538, 1769535, 0, 131073, 1769536, 0, 196619, 1769537, 0, 131074, 1835016, 0, 131073, 1835017, 0, 196619, 1835018, 0, 196619, 1835019, 0, 196619, 1835020, 0, 131074, 1835071, 0, 131073, 1835072, 0, 196619, 1835073, 0, 131074, 1900552, 0, 131073, 1900553, 0, 196619, 1900554, 0, 196619, 1900555, 0, 196619, 1900556, 0, 131074, 1900607, 0, 131073, 1900608, 0, 196619, 1900609, 0, 131074, 1966088, 0, 131073, 1966089, 0, 196619, 1966090, 0, 196619, 1966091, 0, 196619, 1966092, 0, 131074, 1966143, 0, 131073, 1966144, 0, 196619, 1966145, 0, 131074, 2031624, 0, 131073, 2031625, 0, 196619, 2031626, 0, 196619, 2031627, 0, 196619, 2031628, 0, 131074, 2031652, 0, 1, 2031653, 0, 65536, 2031654, 0, 65536, 2031655, 0, 65536, 2031656, 0, 65536, 2031657, 0, 65536, 2031658, 0, 65536, 2031659, 0, 65536, 2031660, 0, 65536, 2031661, 0, 65536, 2031662, 0, 65536, 2031663, 0, 65536, 2031664, 0, 65536, 2031665, 0, 65536, 2031666, 0, 65536, 2031667, 0, 65536, 2031668, 0, 65536, 2031669, 0, 65536, 2031670, 0, 65536, 2031671, 0, 65536, 2031672, 0, 2, 2031679, 0, 131073, 2031680, 0, 196619, 2031681, 0, 131074, 2097160, 0, 131073, 2097161, 0, 196619, 2097162, 0, 196619, 2097163, 0, 196619, 2097164, 0, 131074, 2097188, 0, 131073, 2097189, 0, 196619, 2097190, 0, 196619, 2097191, 0, 196619, 2097192, 0, 196619, 2097193, 0, 196619, 2097194, 0, 196619, 2097195, 0, 196619, 2097196, 0, 196619, 2097197, 0, 196619, 2097198, 0, 196619, 2097199, 0, 196619, 2097200, 0, 196619, 2097201, 0, 196619, 2097202, 0, 196619, 2097203, 0, 196619, 2097204, 0, 196619, 2097205, 0, 196619, 2097206, 0, 196619, 2097207, 0, 196619, 2097208, 0, 131074, 2097215, 0, 131073, 2097216, 0, 196619, 2097217, 0, 131074, 2162696, 0, 131073, 2162697, 0, 196619, 2162698, 0, 196619, 2162699, 0, 196619, 2162700, 0, 131074, 2162724, 0, 131073, 2162725, 0, 196619, 2162726, 0, 196619, 2162727, 0, 196619, 2162728, 0, 196619, 2162729, 0, 196619, 2162730, 0, 196619, 2162731, 0, 196619, 2162732, 0, 196619, 2162733, 0, 196619, 2162734, 0, 196619, 2162735, 0, 196619, 2162736, 0, 196619, 2162737, 0, 196619, 2162738, 0, 196619, 2162739, 0, 196619, 2162740, 0, 196619, 2162741, 0, 196619, 2162742, 0, 196619, 2162743, 0, 196619, 2162744, 0, 65539, 2162745, 0, 65536, 2162746, 0, 65536, 2162747, 0, 65536, 2162748, 0, 65536, 2162749, 0, 65536, 2162750, 0, 65536, 2162751, 0, 65540, 2162752, 0, 196619, 2162753, 0, 131074, 2228232, 0, 131073, 2228233, 0, 196619, 2228234, 0, 196619, 2228235, 0, 196619, 2228236, 0, 131074, 2228260, 0, 131073, 2228261, 0, 196619, 2228262, 0, 196619, 2228263, 0, 196619, 2228264, 0, 196619, 2228265, 0, 196619, 2228266, 0, 196619, 2228267, 0, 196619, 2228268, 0, 196619, 2228269, 0, 196619, 2228270, 0, 196619, 2228271, 0, 196619, 2228272, 0, 196619, 2228273, 0, 196619, 2228274, 0, 196619, 2228275, 0, 196619, 2228276, 0, 196619, 2228277, 0, 196619, 2228278, 0, 196619, 2228279, 0, 196619, 2228280, 0, 196619, 2228281, 0, 196619, 2228282, 0, 196619, 2228283, 0, 196619, 2228284, 0, 196619, 2228285, 0, 196619, 2228286, 0, 196619, 2228287, 0, 196619, 2228288, 0, 196619, 2228289, 0, 131074, 2293768, 0, 131073, 2293769, 0, 196619, 2293770, 0, 196619, 2293771, 0, 196619, 2293772, 0, 131074, 2293796, 0, 131073, 2293797, 0, 196619, 2293798, 0, 196619, 2293799, 0, 196619, 2293800, 0, 196619, 2293801, 0, 196619, 2293802, 0, 196619, 2293803, 0, 196619, 2293804, 0, 196619, 2293805, 0, 196619, 2293806, 0, 196619, 2293807, 0, 196619, 2293808, 0, 196619, 2293809, 0, 196619, 2293810, 0, 196619, 2293811, 0, 196619, 2293812, 0, 196619, 2293813, 0, 196619, 2293814, 0, 196619, 2293815, 0, 196619, 2293816, 0, 196619, 2293817, 0, 196619, 2293818, 0, 196619, 2293819, 0, 196619, 2293820, 0, 196619, 2293821, 0, 196619, 2293822, 0, 196619, 2293823, 0, 196619, 2293824, 0, 196619, 2293825, 0, 131074, 2359304, 0, 131073, 2359305, 0, 196619, 2359306, 0, 196619, 2359307, 0, 196619, 2359308, 0, 131074, 2359332, 0, 131073, 2359333, 0, 196619, 2359334, 0, 196619, 2359335, 0, 196619, 2359336, 0, 196619, 2359337, 0, 196619, 2359338, 0, 196619, 2359339, 0, 196619, 2359340, 0, 196619, 2359341, 0, 196619, 2359342, 0, 196619, 2359343, 0, 196619, 2359344, 0, 196619, 2359345, 0, 196619, 2359346, 0, 196619, 2359347, 0, 196619, 2359348, 0, 196619, 2359349, 0, 196619, 2359350, 0, 196619, 2359351, 0, 196619, 2359352, 0, 196619, 2359353, 0, 196619, 2359354, 0, 196619, 2359355, 0, 196619, 2359356, 0, 196619, 2359357, 0, 196619, 2359358, 0, 196619, 2359359, 0, 196619, 2359360, 0, 196619, 2359361, 0, 131074, 2424840, 0, 131073, 2424841, 0, 196619, 2424842, 0, 196619, 2424843, 0, 196619, 2424844, 0, 131074, 2424868, 0, 131073, 2424869, 0, 196619, 2424870, 0, 196619, 2424871, 0, 196619, 2424872, 0, 196619, 2424873, 0, 196619, 2424874, 0, 196619, 2424875, 0, 196619, 2424876, 0, 196619, 2424877, 0, 196619, 2424878, 0, 196619, 2424879, 0, 196619, 2424880, 0, 196619, 2424881, 0, 196619, 2424882, 0, 196619, 2424883, 0, 196619, 2424884, 0, 196619, 2424885, 0, 196619, 2424886, 0, 196619, 2424887, 0, 196619, 2424888, 0, 196619, 2424889, 0, 196619, 2424890, 0, 196619, 2424891, 0, 196619, 2424892, 0, 196619, 2424893, 0, 196619, 2424894, 0, 196619, 2424895, 0, 196619, 2424896, 0, 196619, 2424897, 0, 131074, 2490376, 0, 131073, 2490377, 0, 196619, 2490378, 0, 196619, 2490379, 0, 196619, 2490380, 0, 65539, 2490381, 0, 65536, 2490382, 0, 65536, 2490383, 0, 65536, 2490384, 0, 65536, 2490385, 0, 65536, 2490386, 0, 65536, 2490387, 0, 65536, 2490388, 0, 65536, 2490389, 0, 65536, 2490390, 0, 65536, 2490391, 0, 65536, 2490392, 0, 65536, 2490393, 0, 65536, 2490394, 0, 65536, 2490395, 0, 65536, 2490396, 0, 65536, 2490397, 0, 65536, 2490398, 0, 65536, 2490399, 0, 65536, 2490400, 0, 65536, 2490401, 0, 65536, 2490402, 0, 65536, 2490403, 0, 65536, 2490404, 0, 65540, 2490405, 0, 196619, 2490406, 0, 196619, 2490407, 0, 3, 2490408, 0, 131072, 2490409, 0, 131072, 2490410, 0, 131072, 2490411, 0, 131072, 2490412, 0, 131072, 2490413, 0, 131072, 2490414, 0, 131072, 2490415, 0, 131072, 2490416, 0, 131072, 2490417, 0, 131072, 2490418, 0, 131072, 2490419, 0, 131072, 2490420, 0, 131072, 2490421, 0, 131072, 2490422, 0, 131072, 2490423, 0, 131072, 2490424, 0, 131072, 2490425, 0, 131072, 2490426, 0, 131072, 2490427, 0, 131072, 2490428, 0, 131072, 2490429, 0, 131072, 2490430, 0, 131072, 2490431, 0, 131072, 2490432, 0, 131072, 2490433, 0, 65538, 2555912, 0, 131073, 2555913, 0, 196619, 2555914, 0, 196619, 2555915, 0, 196619, 2555916, 0, 196619, 2555917, 0, 196619, 2555918, 0, 196619, 2555919, 0, 196619, 2555920, 0, 196619, 2555921, 0, 196619, 2555922, 0, 196619, 2555923, 0, 196619, 2555924, 0, 196619, 2555925, 0, 196619, 2555926, 0, 196619, 2555927, 0, 196619, 2555928, 0, 196619, 2555929, 0, 196619, 2555930, 0, 196619, 2555931, 0, 196619, 2555932, 0, 196619, 2555933, 0, 196619, 2555934, 0, 196619, 2555935, 0, 196619, 2555936, 0, 196619, 2555937, 0, 196619, 2555938, 0, 196619, 2555939, 0, 196619, 2555940, 0, 196619, 2555941, 0, 196619, 2555942, 0, 196619, 2555943, 0, 131074, 2621448, 0, 131073, 2621449, 0, 196619, 2621450, 0, 196619, 2621451, 0, 196619, 2621452, 0, 196619, 2621453, 0, 196619, 2621454, 0, 196619, 2621455, 0, 196619, 2621456, 0, 196619, 2621457, 0, 196619, 2621458, 0, 196619, 2621459, 0, 196619, 2621460, 0, 196619, 2621461, 0, 196619, 2621462, 0, 196619, 2621463, 0, 196619, 2621464, 0, 196619, 2621465, 0, 196619, 2621466, 0, 196619, 2621467, 0, 196619, 2621468, 0, 196619, 2621469, 0, 196619, 2621470, 0, 196619, 2621471, 0, 196619, 2621472, 0, 196619, 2621473, 0, 196619, 2621474, 0, 196619, 2621475, 0, 196619, 2621476, 0, 196619, 2621477, 0, 196619, 2621478, 0, 196619, 2621479, 0, 131074, 2686984, 0, 131073, 2686985, 0, 196619, 2686986, 0, 196619, 2686987, 0, 196619, 2686988, 0, 196619, 2686989, 0, 196619, 2686990, 0, 196619, 2686991, 0, 196619, 2686992, 0, 196619, 2686993, 0, 196619, 2686994, 0, 196619, 2686995, 0, 196619, 2686996, 0, 196619, 2686997, 0, 196619, 2686998, 0, 196619, 2686999, 0, 196619, 2687000, 0, 196619, 2687001, 0, 196619, 2687002, 0, 196619, 2687003, 0, 196619, 2687004, 0, 196619, 2687005, 0, 196619, 2687006, 0, 196619, 2687007, 0, 196619, 2687008, 0, 196619, 2687009, 0, 196619, 2687010, 0, 196619, 2687011, 0, 196619, 2687012, 0, 196619, 2687013, 0, 196619, 2687014, 0, 196619, 2687015, 0, 131074, 2752520, 0, 131073, 2752521, 0, 196619, 2752522, 0, 196619, 2752523, 0, 196619, 2752524, 0, 196619, 2752525, 0, 196619, 2752526, 0, 196619, 2752527, 0, 196619, 2752528, 0, 196619, 2752529, 0, 196619, 2752530, 0, 196619, 2752531, 0, 196619, 2752532, 0, 196619, 2752533, 0, 196619, 2752534, 0, 196619, 2752535, 0, 196619, 2752536, 0, 196619, 2752537, 0, 196619, 2752538, 0, 196619, 2752539, 0, 196619, 2752540, 0, 196619, 2752541, 0, 196619, 2752542, 0, 196619, 2752543, 0, 196619, 2752544, 0, 196619, 2752545, 0, 196619, 2752546, 0, 196619, 2752547, 0, 196619, 2752548, 0, 196619, 2752549, 0, 196619, 2752550, 0, 196619, 2752551, 0, 131074, 2818056, 0, 131073, 2818057, 0, 196619, 2818058, 0, 196619, 2818059, 0, 196619, 2818060, 0, 196619, 2818061, 0, 196619, 2818062, 0, 196619, 2818063, 0, 196619, 2818064, 0, 196619, 2818065, 0, 196619, 2818066, 0, 196619, 2818067, 0, 196619, 2818068, 0, 196619, 2818069, 0, 196619, 2818070, 0, 196619, 2818071, 0, 196619, 2818072, 0, 196619, 2818073, 0, 196619, 2818074, 0, 196619, 2818075, 0, 196619, 2818076, 0, 196619, 2818077, 0, 196619, 2818078, 0, 196619, 2818079, 0, 196619, 2818080, 0, 196619, 2818081, 0, 196619, 2818082, 0, 196619, 2818083, 0, 196619, 2818084, 0, 196619, 2818085, 0, 196619, 2818086, 0, 196619, 2818087, 0, 131074, 2883592, 0, 65537, 2883593, 0, 131072, 2883594, 0, 131072, 2883595, 0, 131072, 2883596, 0, 131072, 2883597, 0, 131072, 2883598, 0, 131072, 2883599, 0, 131072, 2883600, 0, 131072, 2883601, 0, 131072, 2883602, 0, 131072, 2883603, 0, 131072, 2883604, 0, 131072, 2883605, 0, 131072, 2883606, 0, 131072, 2883607, 0, 131072, 2883608, 0, 131072, 2883609, 0, 131072, 2883610, 0, 131072, 2883611, 0, 131072, 2883612, 0, 131072, 2883613, 0, 131072, 2883614, 0, 131072, 2883615, 0, 131072, 2883616, 0, 131072, 2883617, 0, 131072, 2883618, 0, 131072, 2883619, 0, 131072, 2883620, 0, 131072, 2883621, 0, 131072, 2883622, 0, 131072, 2883623, 0, 65538 )

[node name="player" parent="." instance=ExtResource( 3 )]
position = Vector2( 256, 224 )

[node name="GUI" parent="." instance=ExtResource( 4 )]

[node name="truffles" type="Node2D" parent="."]
scale = Vector2( 4, 4 )

[node name="truffle" parent="truffles" instance=ExtResource( 5 )]
position = Vector2( 140, 84 )
scale = Vector2( 0.25, 0.25 )

[node name="truffle3" parent="truffles" instance=ExtResource( 5 )]
position = Vector2( 360, 64 )
scale = Vector2( 0.25, 0.25 )

[node name="truffle4" parent="truffles" instance=ExtResource( 5 )]
position = Vector2( 456, 61.5 )
scale = Vector2( 0.25, 0.25 )

[node name="truffle5" parent="truffles" instance=ExtResource( 5 )]
position = Vector2( 592, 124 )
scale = Vector2( 0.25, 0.25 )

[node name="truffle6" parent="truffles" instance=ExtResource( 5 )]
position = Vector2( 592, 160 )
scale = Vector2( 0.25, 0.25 )

[node name="truffle7" parent="truffles" instance=ExtResource( 5 )]
position = Vector2( 592, 200 )
scale = Vector2( 0.25, 0.25 )

[node name="truffle10" parent="truffles" instance=ExtResource( 5 )]
position = Vector2( 872, 476 )
scale = Vector2( 0.25, 0.25 )

[node name="truffle11" parent="truffles" instance=ExtResource( 5 )]
position = Vector2( 824, 476 )
scale = Vector2( 0.25, 0.25 )

[node name="truffle12" parent="truffles" instance=ExtResource( 5 )]
position = Vector2( 772, 476 )
scale = Vector2( 0.25, 0.25 )

[node name="truffle13" parent="truffles" instance=ExtResource( 5 )]
position = Vector2( 600, 478.5 )
scale = Vector2( 0.25, 0.25 )

[node name="truffle8" parent="truffles" instance=ExtResource( 5 )]
position = Vector2( 900, 208 )
scale = Vector2( 0.25, 0.25 )

[node name="truffle9" parent="truffles" instance=ExtResource( 5 )]
position = Vector2( 900, 248 )
scale = Vector2( 0.25, 0.25 )

[node name="truffle2" parent="truffles" instance=ExtResource( 5 )]
position = Vector2( 168, 84 )
scale = Vector2( 0.25, 0.25 )

[node name="spawns" type="Node2D" parent="."]
editor/display_folded = true

[node name="SpawnArea" parent="spawns" instance=ExtResource( 6 )]
position = Vector2( 1040, 288 )

[node name="Warp" parent="." instance=ExtResource( 7 )]
position = Vector2( 896, 2368 )
next_scene = ExtResource( 8 )
[connection signal="updateHealth" from="player" to="GUI" method="update_health"]
