[gd_scene load_steps=3 format=2]

[ext_resource path="res://scripts/SpawnArea.gd" type="Script" id=1]

[sub_resource type="RectangleShape2D" id=1]
extents = Vector2( 63.9995, 64 )

[node name="SpawnArea" type="Area2D"]
script = ExtResource( 1 )
__meta__ = {
"_edit_group_": true
}

[node name="CollisionShape2D2" type="CollisionShape2D" parent="."]
shape = SubResource( 1 )

[node name="Timer" type="Timer" parent="."]
wait_time = 0.05
autostart = true

[connection signal="timeout" from="Timer" to="." method="spawn_enemies"]
